{
  "devToolsPort": 19002,
  "expoServerPort": null,
  "packagerPort": null,
  "packagerPid": null,
  "expoServerNgrokUrl": "https://8w-8iy.botaoboyang.app.exp.direct",
  "packagerNgrokUrl": "https://packager.8w-8iy.botaoboyang.app.exp.direct",
  "ngrokPid": 16416
}